 for (int loop = 0; loop < 5; loop++){
            
            l.lock();
            try{
            
            }finally{
                l.unlock();
            }
        }
    }
    
    
    public static void main(String[] args) {
    }