package include;


public class Main { 
    public static Object wildcard = new Object();
    public static PseuCoThread thread = new PseuCoThread("mainAgentThread");
    
    public static void main(String[] args) {
        int j = 0, n = 0;
        
        n = 1;
        
        for (j = 5; j > 0; j--){
            
            n = n * j;
        }
        
        System.out.println(" Die Fakultaet von 5 ist " + n + ".");
    }
    
}




